{
  "repoUrl":"https://gitlab.eclipse.org/eclipse/oniro-core/oniro",
  "provider":"gitlab",
  "commits":[
     {
        "author":{
           "name":"Christopher Guindon",
           "mail":"chris.guindon@eclipse-foundation.org"
        },
        "committer":{
           "name":"Zachary Sabourin",
           "mail":"zachary.sabourin@eclipse-foundation.org"
        },
        "body":"test: testing eca validation endpointSigned-off-by: Christopher Guindon <chris.guindon@eclipse-foundation.org>",
        "subject":"test: testing eca validation endpoint",
        "hash":"a43df79361a8cdee6f1c16f072411f13005ca5c3a",
        "parents":[
           "a669d873edf68dc7440bb07096737203bb7ec505a"
        ]
     }
  ]
}